…
    goforit

    ## ── nflverse play by play data ──────────────────────────────────────────────────

    ## ℹ Data updated: 2024-08-19 09:50:07 EDT

    ## # A tibble: 6,780 × 372
    ##    play_id game_id     old_game_id home_team away_team season_type  week posteam
    ##      <dbl> <chr>       <chr>       <chr>     <chr>     <chr>       <int> <chr>  
    ##  1     576 2013_01_AT… 2013090808  NO        ATL       REG             1 NO     
    ##  2    3820 2013_01_AT… 2013090808  NO        ATL       REG             1 ATL    
    ##  3    4137 2013_01_BA… 2013090500  DEN       BAL       REG             1 BAL    
    ##  4    3549 2013_01_CI… 2013090802  CHI       CIN       REG             1 CHI    
    ##  5    4393 2013_01_GB… 2013090811  SF        GB        REG             1 SF     
    ##  6     986 2013_01_HO… 2013090901  LAC       HOU       REG             1 LAC    
    ##  7    1251 2013_01_HO… 2013090901  LAC       HOU       REG             1 HOU    
    ##  8    3353 2013_01_HO… 2013090901  LAC       HOU       REG             1 HOU    
    ##  9    4291 2013_01_KC… 2013090806  JAX       KC        REG             1 JAX    
    ## 10    3835 2013_01_MI… 2013090803  CLE       MIA       REG             1 CLE    
    ## # ℹ 6,770 more rows
    ## # ℹ 364 more variables: posteam_type <chr>, defteam <chr>, side_of_field <chr>,
    ## #   yardline_100 <dbl>, game_date <chr>, quarter_seconds_remaining <dbl>,
    ## #   half_seconds_remaining <dbl>, game_seconds_remaining <dbl>,
    ## #   game_half <chr>, quarter_end <dbl>, drive <dbl>, sp <dbl>, qtr <dbl>,
    ## #   down <dbl>, goal_to_go <int>, time <chr>, yrdln <chr>, ydstogo <dbl>,
    ## #   ydsnet <dbl>, desc <chr>, play_type <chr>, yards_gained <dbl>, …
…
