…
    ## ── nflverse play by play data ──────────────────────────────────────────────────

    ## ℹ Data updated: 2025-02-10 04:25:35 EST

    ## # A tibble: 1,101 × 373
    ##    play_id game_id     old_game_id home_team away_team season_type  week posteam
    ##      <dbl> <chr>       <chr>       <chr>     <chr>     <chr>       <int> <chr>  
    ##  1    3042 1999_01_AR… 1999091200  PHI       ARI       REG             1 PHI    
    ##  2    3824 1999_01_AR… 1999091200  PHI       ARI       REG             1 PHI    
    ##  3    3998 1999_01_AR… 1999091200  PHI       ARI       REG             1 PHI    
    ##  4     544 1999_02_TB… 1999091908  PHI       TB        REG             2 PHI    
    ##  5    3190 1999_02_TB… 1999091908  PHI       TB        REG             2 PHI    
    ##  6    2254 1999_03_PH… 1999092606  BUF       PHI       REG             3 PHI    
    ##  7    3870 1999_03_PH… 1999092606  BUF       PHI       REG             3 PHI    
    ##  8    2640 1999_04_PH… 1999100305  NYG       PHI       REG             4 PHI    
    ##  9    3139 1999_05_DA… 1999101003  PHI       DAL       REG             5 PHI    
    ## 10    2501 1999_06_PH… 1999101705  CHI       PHI       REG             6 PHI    
    ## # ℹ 1,091 more rows
    ## # ℹ 365 more variables: posteam_type <chr>, defteam <chr>, side_of_field <chr>,
    ## #   yardline_100 <dbl>, game_date <chr>, quarter_seconds_remaining <dbl>,
    ## #   half_seconds_remaining <dbl>, game_seconds_remaining <dbl>,
    ## #   game_half <chr>, quarter_end <dbl>, drive <dbl>, sp <dbl>, qtr <dbl>,
    ## #   down <dbl>, goal_to_go <dbl>, time <chr>, yrdln <chr>, ydstogo <dbl>,
    ## #   ydsnet <dbl>, desc <chr>, play_type <chr>, yards_gained <dbl>, …
…
